module gitlab.com/aws-infra/counter-app

go 1.21.4

require (
	github.com/beorn7/perks v1.0.1 // indirect
	github.com/cespare/xxhash/v2 v2.2.0 // indirect
	github.com/go-sql-driver/mysql v1.7.0 // indirect
	github.com/golang/protobuf v1.5.3 // indirect
	github.com/gorilla/mux v1.8.1 // indirect
	github.com/inconshreveable/mousetrap v1.1.0 // indirect
	github.com/jinzhu/inflection v1.0.0 // indirect
	github.com/jinzhu/now v1.1.5 // indirect
	github.com/matttproud/golang_protobuf_extensions v1.0.4 // indirect
	github.com/prometheus/client_golang v1.17.0 // indirect
	github.com/prometheus/client_model v0.4.1-0.20230718164431-9a2bf3000d16 // indirect
	github.com/prometheus/common v0.44.0 // indirect
	github.com/prometheus/procfs v0.11.1 // indirect
	github.com/sirupsen/logrus v1.9.3 // indirect
	github.com/spf13/cobra v1.8.0 // indirect
	github.com/spf13/pflag v1.0.5 // indirect
	golang.org/x/sys v0.11.0 // indirect
	google.golang.org/protobuf v1.31.0 // indirect
	gorm.io/driver/mysql v1.5.2 // indirect
	gorm.io/gorm v1.25.5 // indirect
)
